<?xml version="1.0" encoding="utf-8"?>
<svg version="1.1" id="Layer_whitesource" xmlns="http://www.w3.org/2000/svg" xmlns:xlink="http://www.w3.org/1999/xlink" x="0px" y="0px"
	 viewBox="0 0 130 130" style="enable-background:new 0 0 130 130;" xml:space="preserve">
<style type="text/css">
	.whitesource0{fill:#FEC017;}
	.whitesource1{fill:#F3A21E;}
	.whitesource2{fill:#FCE100;}
	.whitesource3{fill:none;}
	.whitesource4{fill:#252B36;}
	.whitesource5{fill:#474F60;}
	.whitesource6{fill:#FFFFFF;}
	.whitesource7{fill:#E5E5E4;}
</style>
<g>
	<rect x="32.27" y="62.41" class="whitesource0" width="61.1" height="10.35"/>
	<path class="whitesource1" d="M63.28,26.53c-16.87,0-30.55,13.68-30.55,30.55l1.7,6.85l59.4,6.75v-13.6C93.84,40.21,80.17,26.53,63.28,26.53
		"/>
	<path class="whitesource2" d="M62.81,26.53c-16.87,0-30.55,13.68-30.55,30.55v14.19l30.55-3.68V26.53z"/>
	<path class="whitesource1" d="M62.83,25.28c-0.16,0-0.33-0.01-0.49-0.01c-3.37,0-6.6,0.57-9.64,1.6v40.72h20.21V32.13V27.2v-1.93H62.83z"/>
	<path class="whitesource0" d="M62.81,67.04v-35.2v-6.56c-0.15,0-0.31-0.01-0.47-0.01c-0.09,0-0.17,0.01-0.26,0.01h-9.37v42.55L62.81,67.04z"
		/>
	<path class="whitesource0" d="M94.82,69.66c-10.28-2.38-21-3.64-32.01-3.64c-11.01,0-21.72,1.26-32.01,3.64c-0.93,0-1.68,0.75-1.68,1.68
		c0,0.93,0.75,1.68,1.68,1.68h0.41c10.15-2.36,20.73-3.61,31.6-3.61c10.87,0,21.45,1.25,31.6,3.61h0.41c0.93,0,1.68-0.75,1.68-1.68
		C96.5,70.41,95.75,69.66,94.82,69.66"/>
	<polygon class="whitesource1" points="56.5,54.75 63.99,62.24 67.63,56.47 67.63,54.75 	"/>
	<g>
		<g>
			<path class="whitesource3" d="M75.87,84.61c0.14-2.85-0.66-5.88-2.1-7.57h-21.6c-1.21,1.68-1.97,3.86-2.08,6.19
				c-0.38,7.42,5.51,13.45,12.83,13.45c0.03,0,0.06,0,0.08,0c0.18,0,0.36,0.02,0.54,0.02c0.02,0,0.04,0.08,0.06,0.08
				C70.17,96.44,75.53,91.18,75.87,84.61z"/>
			<path class="whitesource4" d="M62.92,96.68c-7.33,0-13.21-6.02-12.83-13.45c0.12-2.33,0.88-4.51,2.08-6.19H36.34c-0.09,0-0.18,0-0.28,0
				h-5.58c-0.79,0-1.34,0.41-1.34,1.21v11.46c0,0.79,0.54,1.36,1.34,1.36h5.75c0.62,0,1.17,0.43,1.36,1.02
				c0.45,1.37,1.01,2.73,1.66,3.99c0.29,0.55,0.18,1.23-0.25,1.68l-4.09,4.13c-0.56,0.56-0.56,1.47,0,2.03l8.19,8.21
				c0.56,0.56,1.47,0.56,2.03,0l4.11-4.13c0.44-0.44,1.11-0.55,1.67-0.26c1.2,0.62,2.37,1.14,3.69,1.57
				c0.59,0.19,0.92,0.74,0.92,1.36v6.01c0,0.79,0.78,1.34,1.57,1.34h5.67l0.05-21.32C62.85,96.68,62.88,96.68,62.92,96.68z"/>
			<path class="whitesource5" d="M62.82,96.68c7.29,0,13.21-6.02,12.83-13.45c-0.12-2.33-0.88-4.51-2.08-6.19h15.82c0.09,0,0.18,0,0.28,0
				h5.58c0.79,0,1.24,0.41,1.24,1.21v11.46c0,0.79-0.44,1.36-1.24,1.36H89.5c-0.62,0-1.17,0.43-1.36,1.02
				c-0.45,1.37-1.01,2.73-1.66,3.99c-0.29,0.55-0.18,1.23,0.25,1.68l4.09,4.13c0.56,0.56,0.56,1.47,0,2.03l-8.19,8.21
				c-0.56,0.56-1.47,0.56-2.03,0l-4.11-4.13c-0.44-0.44-1.11-0.55-1.67-0.26c-1.2,0.62-2.42,1.14-3.74,1.57
				c-0.59,0.19-0.97,0.74-0.97,1.36v6.01c0,0.79-0.68,1.34-1.48,1.34h-5.82V96.68z"/>
			<path class="whitesource6" d="M63.54,96.73c-0.18,0.01-0.36,0.01-0.54,0.01C63.34,96.74,63.38,96.74,63.54,96.73z"/>
			<path class="whitesource7" d="M63,96.68c-0.02,0-0.06,0-0.08,0C62.94,96.68,62.97,96.68,63,96.68z"/>
		</g>
		<g>
			<path class="whitesource4" d="M74.42,84.25c0,6.36-5.16,11.51-11.51,11.51c-0.03,0-0.06-0.01-0.09-0.01v5.13c0.03,0,0.06,0,0.09,0
				c9.19,0,16.64-7.45,16.64-16.64c0-2.58-0.59-4.96-1.64-7.21h-6.04C73.47,78.73,74.42,81.52,74.42,84.25z"/>
			<path class="whitesource5" d="M51.11,84.25c0,6.36,5.2,11.51,11.56,11.51c0.03,0,0.14-0.01,0.14-0.01v5.13c0,0-0.11,0-0.14,0
				c-9.19,0-16.67-7.45-16.67-16.64c0-2.58,0.57-4.96,1.62-7.21h6.04C52.07,78.73,51.11,81.52,51.11,84.25z"/>
			<polygon class="whitesource7" points="62.82,100.88 62.82,100.88 62.82,100.88 			"/>
		</g>
	</g>
</g>
</svg>
